<?xml version="1.0" encoding="utf-8"?>
<!-- Generator: Adobe Illustrator 19.2.0, SVG Export Plug-In . SVG Version: 6.00 Build 0)  -->
<svg version="1.1" id="Layer_1" xmlns="http://www.w3.org/2000/svg" xmlns:xlink="http://www.w3.org/1999/xlink" x="0px" y="0px"
	 viewBox="0 0 154 96.4" style="enable-background:new 0 0 154 96.4;" xml:space="preserve">
<style type="text/css">
	.st0{opacity:0.54;}
	.st1{fill:#00AEEF;}
	.st2{font-family:'SignPainter-HouseScript';}
	.st3{font-size:72px;}
	.st4{letter-spacing:1;}
</style>
<g class="st0">
	<g>
		<path class="st1" d="M37.3,36.7c0-5.2-1.3-10.4-5.4-14c-2.6-2.2-7.1-4.3-10.1-1.6c-3.4,3.1-1.3,8.9,0,12.4c2.6,6.7,6,13,9.4,19.3
			c1.4-0.8,2.9-1.7,4.3-2.5c-4.7-6.5-11.7-11.1-19.9-11.8C7.5,37.9,1.1,42.9,0.1,51.1c-1,9,5.5,16.5,12.2,21.6
			c7.6,5.8,16.9,9.2,26.5,8c2.2-0.3,3.8-3.5,1.3-4.7c-1.5-0.7-1.9-0.9-3.5-1.2c0.5,1.2,1,2.4,1.5,3.7c1.8-3.5,3.9-7.4,8.4-7.4
			c4,0,7.4,2.8,9.6,5.8c2.4,3.1,3.9,10.6,8.2,11.4c1.1,0.2,2.3-0.1,2.8-1.1c1.1-2,0.5-3.2-0.1-5.3c-1.1-3.8-2-7.7-2.5-11.6
			c-0.2-1.9-0.8-4.1,1-5.5c1.9-1.6,6-0.6,7.9,0.4c2.8,1.5,4.8,4,7.7,5.3c1.8,0.8,3.6-0.2,3.8-2.2c0.4-5.4,0.6-11-2.6-15.7
			c-3-4.4-8.2-5.7-11.6-9.4c0.2,0.8,0.4,1.6,0.6,2.4c0.6-2.7,8.4-4.7,10.4-5.3c1.6-0.4,2.2-2.3,1.5-3.7c-4.2-7.9-19.7-23.3-24.9-8.1
			c1.4-0.4,2.8-0.7,4.2-1.1c-2.6-3.1-2.2-7.5-4.8-10.7c-2-2.4-5.1-3.5-8.2-3.6c-7.4-0.2-14,4.5-18.3,10.3c-1.9,2.6,2.4,5.1,4.3,2.5
			c3.2-4.3,10.4-9.8,16.1-7.4c4.4,1.9,4.3,8.8,7.3,12.4c1.3,1.5,3.6,0.5,4.2-1.1c1.7-5,7.5-0.6,10,1.6c2.4,2.2,4.2,4.8,5.7,7.7
			c0.5-1.2,1-2.4,1.5-3.7c-3.7,1-16.3,4.8-13.6,10.7c1.2,2.7,5.7,4.1,8,5.8c5.5,4.1,5.7,9.9,5.2,16.2c1.3-0.7,2.5-1.4,3.8-2.2
			c-4-1.9-6.8-5.6-11.2-6.7c-3.5-0.9-7.9-0.4-10.7,2c-2.9,2.5-2.5,6.3-2,9.8c0.3,2.3,0.7,4.6,1.2,6.8c0.3,1.4,2.1,6.4,1.9,6.7
			c0.9-0.4,1.9-0.8,2.8-1.1c-0.9-0.2-5-8.9-6.1-10.3c-2.2-2.8-5-5-8.3-6.2c-8.3-2.9-13.9,2-17.4,9c-0.7,1.3-0.2,3.4,1.5,3.7
			c0.8,0.2,1.5,0.5,2.3,0.7c0.4-1.6,0.8-3.1,1.3-4.7C26.5,77.3,10.9,69.8,6,57.8c-2.8-6.9,0.5-14.6,8.7-14.3
			c6.5,0.2,12.6,4.2,16.4,9.4c1.9,2.6,5.9,0.4,4.3-2.5c-3.3-6.2-6.7-12.4-9.2-19c-1.1-3.1-2.8-9,2.2-4.8c3.1,2.5,3.7,6.4,3.7,10.2
			C32.3,39.9,37.3,39.9,37.3,36.7L37.3,36.7z"/>
	</g>
</g>
<text transform="matrix(1 0 0 1 48.3033 61.1992)" class="st2 st3 st4">Logo</text>
</svg>
